^C:\USERS\GITUP\RIDERPROJECTS\REPLACESYMBOLS\REPLACESYMBOLS\X64\DEBUG\REPLACESYMBOLS.OBJ
C:\USERS\GITUP\RIDERPROJECTS\REPLACESYMBOLS\X64\DEBUG\REPLACESYMBOLS.EXE
C:\USERS\GITUP\RIDERPROJECTS\REPLACESYMBOLS\REPLACESYMBOLS\X64\DEBUG\REPLACESYMBOLS.ILK
C:\USERS\GITUP\RIDERPROJECTS\REPLACESYMBOLS\X64\DEBUG\REPLACESYMBOLS.PDB
